universal rejuvenation
delay when all inputs zero prob = 1.0 is 983.46
delay when all inputs zero prob = 0.0 is 635.33

delay,add.asm
0%,769.14
0.001%,740.07
0.01%,733.99
0.1%,727.32
1%,718.58
100%,678.61
there are 0 nets with pz in range (0.9999999999978891, 1)
