universal rejuvenation
delay when all inputs zero prob = 1.0 is 983.46
delay when all inputs zero prob = 0.0 is 635.33

delay,mixed.asm
0%,752.97
0.001%,723.20
0.01%,716.85
0.1%,710.07
1%,702.80
100%,680.20
there are 0 nets with pz in range (0.9999999999978891, 1)
