universal rejuvenation
delay when all inputs zero prob = 1.0 is 983.46
delay when all inputs zero prob = 0.0 is 635.33

delay,or.asm
0%,712.35
0.1%,707.74
100%,678.89
there are 0 nets with pz in range (0.9999999999978891, 1)
