53-vec A.s = 658.040029345
53-vec B.s = 663.272593255
53-vec C.s = 658.376001405
53-vec D.s = 656.093986241
53-vec E.s = 656.963338354
53-vec F.s = 659.686155311
53-vec G.s = 655.50400706
53-vec H.s = 659.509222987
53-vec I.s = 658.548527801
53-vec J.s = 657.608622968
53-vec K.s = 660.280848378
53-vec L.s = 661.986045618
53-vec M.s = 682.766635687
53-vec N.s = 659.121280633
53-vec O.s = 661.753932941
53-vec P.s = 664.421388456
53-vec Q.s = 682.09912039
53-vec R.s = 658.478454176
53-vec S.s = 657.690100644
53-vec T.s = 660.687458105
53-vec W.s = 661.873577088
53-vec X.s = 656.963338354
53-vec 2.s = 682.766635687
53-vec 3.s = 659.4200161
53-vec 4.s = 680.18448686
53-vec 5.s = 680.896521668
53-vec AA.s = 656.093986241
53-vec AB.s = 684.945851612
53-vec AC.s = 657.864894077
53-vec AD.s = 658.450940893
53-vec AG.s = 685.160069933
53-vec AJ.s = 660.687458105
53-vec AK.s = 658.548527801
53-vec AL.s = 659.809205711
53-vec AM.s = 658.478454176
