universal rejuvenation
delay when all inputs zero prob = 1.0 is 983.46
delay when all inputs zero prob = 0.0 is 635.33

delay,nor.asm
0%,699.36
0.001%,697.55
0.01%,697.52
0.1%,697.58
1%,697.61
100%,683.91
there are 0 nets with pz in range (0.9999999999978891, 1)
