add.asm, 0%:(769.143413592, 4/255), 0.1%:(724.235247207, 1/139), 100%:(678.610191064, 2/137)
and.asm, 0%:(699.146128086, 3/219), 0.1%:(696.695446636, 0/120), 100%:(678.013717096, 0/88)
div.asm, 0%:(749.489917554, 4/266), 0.1%:(704.735054267, 1/150), 100%:(678.967305952, 3/161)
mixed.asm, 0%:(750.456935999, 5/210), 0.1%:(707.241696613, 2/155), 100%:(680.574388808, 2/128)
mul.asm, 0%:(749.960567719, 5/239), 0.1%:(704.963947817, 2/81), 100%:(681.431128527, 2/164)
nop.asm, 0%:(811.558630298, 40/441), 0.1%:(718.053217542, 2/167), 100%:(677.371712172, 2/188)
nor.asm, 0%:(699.36470846, 3/178), 0.1%:(695.238948875, 1/86), 100%:(683.860855166, 2/138)
or.asm, 0%:(712.351359315, 3/228), 0.1%:(709.162352832, 2/191), 100%:(678.886248588, 0/75)
rand_1.asm, 0%:(747.718759469, 4/204), 0.1%:(702.978095956, 1/59), 100%:(681.639840072, 2/159)
rand_2.asm, 0%:(690.714559144, 3/293), 0.1%:(687.384586808, 1/159), 100%:(678.901994746, 1/117)
rand_3.asm, 0%:(697.096575631, 3/287), 0.1%:(692.914424328, 1/154), 100%:(681.652738141, 1/99)
shift.asm, 0%:(752.559304607, 5/257), 0.1%:(707.523206255, 2/90), 100%:(680.068107698, 2/170)
sub.asm, 0%:(753.267179088, 4/180), 0.1%:(708.374047833, 1/6), 100%:(680.076258943, 1/140)
worst_ugp.asm, 0%:(813.105419376, 40/439), 0.1%:(720.034791869, 1/168), 100%:(679.385946686, 2/166)
xor.asm, 0%:(699.695220459, 3/187), 0.1%:(697.110127043, 1/64), 100%:(679.224302248, 3/187)
