universal rejuvenation
delay when all inputs zero prob = 1.0 is 983.46
delay when all inputs zero prob = 0.0 is 635.33

delay,add_8.asm,and.asm,count.asm,div_8.asm,mixed1.asm,mixed.asm,mul_8.asm,nop.asm,nor.asm,or.asm,rand_1.asm,rand_2.asm,rand_3.asm,sub_8.asm,subseq.asm,worst_ugp.asm,xor.asm
0%,746.43,694.10,743.98,748.34,747.63,746.74,746.66,811.56,692.86,690.34,745.77,697.54,701.20,745.57,751.17,812.96,693.06
0.1%,746.43,694.11,743.97,748.35,747.63,746.93,746.66,805.47,692.87,690.53,745.78,697.55,701.20,745.76,751.17,806.69,693.25
100%,802.77,802.77,802.77,802.77,802.77,802.77,802.77,802.77,802.77,802.77,802.77,802.77,802.77,802.77,802.77,802.77,802.77
there are 0 nets with pz in range (0.9999999999978891, 1)
