universal rejuvenation
delay when all inputs zero prob = 1.0 is 983.46
delay when all inputs zero prob = 0.0 is 635.33

delay,add.asm,and.asm,div.asm,mixed.asm,mul.asm,nop.asm,nor.asm,or.asm,rand_1.asm,rand_2.asm,rand_3.asm,shift.asm,sub.asm,worst_ugp.asm,xor.asm
0%,769.14,699.15,749.63,752.00,749.96,811.56,699.36,712.35,752.05,690.55,694.35,757.88,753.27,813.43,699.70
0.001%,745.44,699.15,725.92,728.30,726.26,787.85,699.36,712.35,728.34,690.55,694.35,734.18,729.56,789.72,699.70
0.01%,739.91,699.14,720.43,722.81,720.76,782.36,699.36,712.32,722.85,690.55,694.35,728.67,724.07,784.23,699.69
0.1%,733.73,699.13,714.55,716.92,714.87,776.48,699.34,712.05,716.97,690.55,694.36,722.66,718.16,778.35,699.68
1%,725.16,698.99,708.34,710.70,708.56,770.24,699.15,710.13,710.76,690.57,694.38,715.37,711.74,772.11,699.52
100%,757.14,757.14,757.14,757.14,757.14,757.14,757.14,757.14,757.14,757.14,757.14,757.14,757.14,757.14,757.14
there are 0 nets with pz in range (0.9999999999978891, 1)
