universal rejuvenation
delay when all inputs zero prob = 1.0 is 983.46
delay when all inputs zero prob = 0.0 is 635.33

delay,shift.asm
0%,812.26
1e-10%,811.98
1e-09%,810.21
1e-08%,804.83
1e-07%,797.04
1e-06%,788.06
1e-05%,778.11
0.0001%,767.16
0.001%,755.20
0.01%,742.24
0.05%,732.60
0.1%,728.31
0.2%,723.94
0.5%,718.06
1%,713.53
10%,698.07
100%,681.65
there are 556 nets with pz in range (0.9999999999978891, 1)
