53-vec add_8 = 746.430544636
53-vec add_8 = 720.141914746
53-vec add_8 = 720.141982969
53-vec add_8 = 717.097891215
53-vec add_8 = 717.927385705
53-vec add_8 = 746.430490635
53-vec add_8 = 746.430333317
53-vec add_8 = 746.430319184
53-vec add_8 = 746.430532435
53-vec add_8 = 746.430496236
53-vec add_8 = 717.097891215
53-vec It was the best, gen time 46.1589999199 = 717.097891215
53-vec add_8 = 696.479906551
53-vec add_8 = 748.010004355
53-vec add_8 = 694.108508079
53-vec add_8 = 745.344995667
53-vec add_8 = 746.930334344
53-vec add_8 = 743.285836783
53-vec add_8 = 698.883173971
53-vec add_8 = 696.416058537
53-vec add_8 = 692.968951072
53-vec add_8 = 696.327383526
53-vec add_8 = 692.968951072
53-vec It was the best, gen time 41.3350000381 = 692.968951072
