universal rejuvenation										
delay when all inputs zero prob = 1.0 is 983.46										
delay when all inputs zero prob = 0.0 is 635.33										
										
delay	add_8.asm	div_8.asm	just_add_8.asm	just_div_8.asm	just_mul_8.asm	just_sub_8.asm	mixed_8.asm	mul_8.asm	opcode.asm	sub_8.asm
0%	745.48	745.12	744.16	697.2	811.56	811.56	692.06	748.21	747.55	744.71
1.00E-12	745.37	745.02	744.05	697.2	811.3	811.3	692.06	748.11	747.44	744.61
1.00E-11	744.67	744.31	743.3	697.18	809.6	809.6	692.04	747.4	746.74	743.9
1.00E-10	742.29	741.93	740.77	697.06	804.33	804.33	691.91	745.02	744.35	741.52
1.00E-09	738.63	738.28	736.9	696.77	796.59	796.59	691.62	741.36	740.7	737.87
1.00E-08	734.38	734.03	732.43	696.39	787.64	787.64	691.25	737.11	736.45	733.62
1.00E-07	729.67	729.31	727.95	695.97	777.71	777.71	690.83	732.4	731.74	728.9
0.00%	724.49	724.14	723.03	695.5	766.79	766.79	690.36	727.23	726.56	723.73
0.00%	718.85	718.49	717.67	694.98	754.86	754.86	689.84	721.58	720.92	718.08
0.01%	712.74	712.38	711.88	694.42	741.92	741.92	689.28	715.47	714.8	711.97
0.05%	708.2	707.85	707.58	693.99	732.3	732.3	688.85	710.94	710.27	707.44
0.10%	706.19	705.83	705.67	693.79	728.02	728.02	688.66	708.92	708.25	705.42
0.20%	704.14	703.78	703.73	693.59	723.66	723.66	688.46	706.87	706.2	703.37
0.50%	701.38	701.01	701.12	693.29	717.78	717.78	688.19	704.1	703.42	700.61
1%	699.26	698.88	699.09	693.03	713.43	713.26	687.97	701.97	701.27	698.49
10%	692.01	691.47	691.88	691.34	699.35	697.85	687.18	694.55	693.56	691.26
100%	685.07	685.07	685.07	685.07	685.07	685.07	685.07	685.07	685.07	685.07
there are 3015 nets with pz in range (0.9999999999978891	 1)									
										
Aging induced delay (no rejuvenation)	17.34%	17.28%	17.13%	9.74%	27.74%	27.74%	8.93%	17.77%	17.66%	17.22%
Rejuvenation Efficiency	6.18%	6.18%	6.06%	0.54%	13.15%	13.15%	0.54%	6.18%	6.19%	6.18%
Aging induced delay (after rejuvenation)	11.15%	11.10%	11.07%	9.20%	14.59%	14.59%	8.39%	11.58%	11.48%	11.03%
