Mon Apr 25 18:26:32 2016: failed to remove ./../individualsToEvaluate.txt
Mon Apr 25 18:26:35 2016: failed to remove ./../individualsToEvaluate.txt
Mon Apr 25 18:26:35 2016: failed to remove ./../individualsToEvaluate.txt
Mon Apr 25 18:26:35 2016: failed to remove ./../individualsToEvaluate.txt
Mon Apr 25 18:26:35 2016: failed to remove ./../individualsToEvaluate.txt
Mon Apr 25 18:26:36 2016: failed to remove ./../individualsToEvaluate.txt
Mon Apr 25 18:26:36 2016: failed to remove ./../individualsToEvaluate.txt
Mon Apr 25 18:26:36 2016: failed to remove ./../individualsToEvaluate.txt
Mon Apr 25 18:26:36 2016: failed to remove ./../individualsToEvaluate.txt
Mon Apr 25 18:26:36 2016: failed to remove ./../individualsToEvaluate.txt
Mon Apr 25 18:26:37 2016: failed to remove ./../individualsToEvaluate.txt
Mon Apr 25 18:26:37 2016: failed to remove ./../individualsToEvaluate.txt
Mon Apr 25 18:26:37 2016: failed to remove ./../individualsToEvaluate.txt
Mon Apr 25 18:26:37 2016: failed to remove ./../individualsToEvaluate.txt
Mon Apr 25 18:26:37 2016: failed to remove ./../individualsToEvaluate.txt
Mon Apr 25 18:26:38 2016: failed to remove ./../individualsToEvaluate.txt
Mon Apr 25 18:26:38 2016: failed to remove ./../individualsToEvaluate.txt
Mon Apr 25 18:26:38 2016: failed to remove ./../individualsToEvaluate.txt
Mon Apr 25 18:26:38 2016: failed to remove ./../individualsToEvaluate.txt
Mon Apr 25 18:26:38 2016: failed to remove ./../individualsToEvaluate.txt
Mon Apr 25 18:26:39 2016: failed to remove ./../individualsToEvaluate.txt
Mon Apr 25 18:26:39 2016: failed to remove ./../individualsToEvaluate.txt
Mon Apr 25 18:26:39 2016: failed to remove ./../individualsToEvaluate.txt
Mon Apr 25 18:26:39 2016: failed to remove ./../individualsToEvaluate.txt
Mon Apr 25 18:26:39 2016: failed to remove ./../individualsToEvaluate.txt
Mon Apr 25 18:26:40 2016: failed to remove ./../individualsToEvaluate.txt
Mon Apr 25 18:26:40 2016: failed to remove ./../individualsToEvaluate.txt
Mon Apr 25 18:26:40 2016: failed to remove ./../individualsToEvaluate.txt
Mon Apr 25 18:26:40 2016: failed to remove ./../individualsToEvaluate.txt
Mon Apr 25 18:26:40 2016: failed to remove ./../individualsToEvaluate.txt
Mon Apr 25 18:26:41 2016: failed to remove ./../individualsToEvaluate.txt
Mon Apr 25 18:26:41 2016: failed to remove ./../individualsToEvaluate.txt
Mon Apr 25 18:26:41 2016: failed to remove ./../individualsToEvaluate.txt
Mon Apr 25 18:26:41 2016: failed to remove ./../individualsToEvaluate.txt
Mon Apr 25 18:26:42 2016: failed to remove ./../individualsToEvaluate.txt
Mon Apr 25 18:26:42 2016: failed to remove ./../individualsToEvaluate.txt
Mon Apr 25 18:26:42 2016: failed to remove ./../individualsToEvaluate.txt
Mon Apr 25 18:26:42 2016: failed to remove ./../individualsToEvaluate.txt
Mon Apr 25 18:26:42 2016: failed to remove ./../individualsToEvaluate.txt
Mon Apr 25 18:26:43 2016: failed to remove ./../individualsToEvaluate.txt
Mon Apr 25 18:26:43 2016: failed to remove ./../individualsToEvaluate.txt
Mon Apr 25 18:26:43 2016: failed to remove ./../individualsToEvaluate.txt
Mon Apr 25 18:26:43 2016: failed to remove ./../individualsToEvaluate.txt
Mon Apr 25 18:26:43 2016: failed to remove ./../individualsToEvaluate.txt
Mon Apr 25 18:26:44 2016: failed to remove ./../individualsToEvaluate.txt
Mon Apr 25 18:26:44 2016: failed to remove ./../individualsToEvaluate.txt
Mon Apr 25 18:26:44 2016: failed to remove ./../individualsToEvaluate.txt
Mon Apr 25 18:26:44 2016: failed to remove ./../individualsToEvaluate.txt
Mon Apr 25 18:26:44 2016: failed to remove ./../individualsToEvaluate.txt
Mon Apr 25 18:26:45 2016: failed to remove ./../individualsToEvaluate.txt
Mon Apr 25 18:26:45 2016: failed to remove ./../individualsToEvaluate.txt
Mon Apr 25 18:26:45 2016: failed to remove ./../individualsToEvaluate.txt
Mon Apr 25 18:26:45 2016: failed to remove ./../individualsToEvaluate.txt
Mon Apr 25 18:26:45 2016: failed to remove ./../individualsToEvaluate.txt
Mon Apr 25 18:26:46 2016: failed to remove ./../individualsToEvaluate.txt
Mon Apr 25 18:26:46 2016: failed to remove ./../individualsToEvaluate.txt
Mon Apr 25 18:26:46 2016: failed to remove ./../individualsToEvaluate.txt
Mon Apr 25 18:26:46 2016: failed to remove ./../individualsToEvaluate.txt
Mon Apr 25 18:26:46 2016: failed to remove ./../individualsToEvaluate.txt
Mon Apr 25 18:26:47 2016: failed to remove ./../individualsToEvaluate.txt
Mon Apr 25 18:26:47 2016: failed to remove ./../individualsToEvaluate.txt
Mon Apr 25 18:26:47 2016: failed to remove ./../individualsToEvaluate.txt
Mon Apr 25 18:26:47 2016: failed to remove ./../individualsToEvaluate.txt
Mon Apr 25 18:26:47 2016: failed to remove ./../individualsToEvaluate.txt
Mon Apr 25 18:26:48 2016: failed to remove ./../individualsToEvaluate.txt
Mon Apr 25 18:26:48 2016: failed to remove ./../individualsToEvaluate.txt
Mon Apr 25 18:26:48 2016: failed to remove ./../individualsToEvaluate.txt
Mon Apr 25 18:26:48 2016: failed to remove ./../individualsToEvaluate.txt
Mon Apr 25 18:26:48 2016: failed to remove ./../individualsToEvaluate.txt
Mon Apr 25 18:26:49 2016: failed to remove ./../individualsToEvaluate.txt
Mon Apr 25 18:26:49 2016: failed to remove ./../individualsToEvaluate.txt
Mon Apr 25 18:26:49 2016: failed to remove ./../individualsToEvaluate.txt
Mon Apr 25 18:26:49 2016: failed to remove ./../individualsToEvaluate.txt
Mon Apr 25 18:26:49 2016: failed to remove ./../individualsToEvaluate.txt
Mon Apr 25 18:26:50 2016: failed to remove ./../individualsToEvaluate.txt
Mon Apr 25 18:26:50 2016: failed to remove ./../individualsToEvaluate.txt
Mon Apr 25 18:26:50 2016: failed to remove ./../individualsToEvaluate.txt
Mon Apr 25 18:26:50 2016: failed to remove ./../individualsToEvaluate.txt
Mon Apr 25 18:26:50 2016: failed to remove ./../individualsToEvaluate.txt
Mon Apr 25 18:26:51 2016: failed to remove ./../individualsToEvaluate.txt
Mon Apr 25 18:26:51 2016: failed to remove ./../individualsToEvaluate.txt
Mon Apr 25 18:26:51 2016: failed to remove ./../individualsToEvaluate.txt
Mon Apr 25 18:26:51 2016: failed to remove ./../individualsToEvaluate.txt
Mon Apr 25 18:26:51 2016: failed to remove ./../individualsToEvaluate.txt
Mon Apr 25 18:26:52 2016: failed to remove ./../individualsToEvaluate.txt
Mon Apr 25 18:26:52 2016: failed to remove ./../individualsToEvaluate.txt
Mon Apr 25 18:26:52 2016: failed to remove ./../individualsToEvaluate.txt
Mon Apr 25 18:26:52 2016: failed to remove ./../individualsToEvaluate.txt
Mon Apr 25 18:26:52 2016: failed to remove ./../individualsToEvaluate.txt
Mon Apr 25 18:26:53 2016: failed to remove ./../individualsToEvaluate.txt
Mon Apr 25 18:26:53 2016: failed to remove ./../individualsToEvaluate.txt
Mon Apr 25 18:26:53 2016: failed to remove ./../individualsToEvaluate.txt
Mon Apr 25 18:26:53 2016: failed to remove ./../individualsToEvaluate.txt
Mon Apr 25 18:26:53 2016: failed to remove ./../individualsToEvaluate.txt
Mon Apr 25 18:26:54 2016: failed to remove ./../individualsToEvaluate.txt
Mon Apr 25 18:26:54 2016: failed to remove ./../individualsToEvaluate.txt
Mon Apr 25 18:26:54 2016: failed to remove ./../individualsToEvaluate.txt
Mon Apr 25 18:26:54 2016: failed to remove ./../individualsToEvaluate.txt
Mon Apr 25 18:26:55 2016: failed to remove ./../individualsToEvaluate.txt
Mon Apr 25 18:26:55 2016: failed to remove ./../individualsToEvaluate.txt
Mon Apr 25 18:26:55 2016: failed to remove ./../individualsToEvaluate.txt
Mon Apr 25 18:26:55 2016: failed to remove ./../individualsToEvaluate.txt
Mon Apr 25 18:26:55 2016: failed to remove ./../individualsToEvaluate.txt
Mon Apr 25 18:26:56 2016: failed to remove ./../individualsToEvaluate.txt
Mon Apr 25 18:26:56 2016: failed to remove ./../individualsToEvaluate.txt
Mon Apr 25 18:26:56 2016: failed to remove ./../individualsToEvaluate.txt
Mon Apr 25 18:26:56 2016: failed to remove ./../individualsToEvaluate.txt
Mon Apr 25 18:26:56 2016: failed to remove ./../individualsToEvaluate.txt
Mon Apr 25 18:26:57 2016: failed to remove ./../individualsToEvaluate.txt
Mon Apr 25 18:26:57 2016: failed to remove ./../individualsToEvaluate.txt
Mon Apr 25 18:26:57 2016: failed to remove ./../individualsToEvaluate.txt
Mon Apr 25 18:26:57 2016: failed to remove ./../individualsToEvaluate.txt
Mon Apr 25 18:26:57 2016: failed to remove ./../individualsToEvaluate.txt
Mon Apr 25 18:26:58 2016: failed to remove ./../individualsToEvaluate.txt
Mon Apr 25 18:26:58 2016: failed to remove ./../individualsToEvaluate.txt
Mon Apr 25 18:26:58 2016: failed to remove ./../individualsToEvaluate.txt
Mon Apr 25 18:26:58 2016: failed to remove ./../individualsToEvaluate.txt
Mon Apr 25 18:26:58 2016: failed to remove ./../individualsToEvaluate.txt
Mon Apr 25 18:26:59 2016: failed to remove ./../individualsToEvaluate.txt
Mon Apr 25 18:26:59 2016: failed to remove ./../individualsToEvaluate.txt
Mon Apr 25 18:26:59 2016: failed to remove ./../individualsToEvaluate.txt
Mon Apr 25 18:26:59 2016: failed to remove ./../individualsToEvaluate.txt
Mon Apr 25 18:26:59 2016: failed to remove ./../individualsToEvaluate.txt
Mon Apr 25 18:27:00 2016: failed to remove ./../individualsToEvaluate.txt
Mon Apr 25 18:27:00 2016: failed to remove ./../individualsToEvaluate.txt
Mon Apr 25 18:27:00 2016: failed to remove ./../individualsToEvaluate.txt
Mon Apr 25 18:27:00 2016: failed to remove ./../individualsToEvaluate.txt
Mon Apr 25 18:27:00 2016: failed to remove ./../individualsToEvaluate.txt
Mon Apr 25 18:27:01 2016: failed to remove ./../individualsToEvaluate.txt
Mon Apr 25 18:27:01 2016: failed to remove ./../individualsToEvaluate.txt
Mon Apr 25 18:27:01 2016: failed to remove ./../individualsToEvaluate.txt
Mon Apr 25 18:27:01 2016: failed to remove ./../individualsToEvaluate.txt
Mon Apr 25 18:27:01 2016: failed to remove ./../individualsToEvaluate.txt
Mon Apr 25 18:27:02 2016: failed to remove ./../individualsToEvaluate.txt
Mon Apr 25 18:27:02 2016: failed to remove ./../individualsToEvaluate.txt
Mon Apr 25 18:27:02 2016: failed to remove ./../individualsToEvaluate.txt
Mon Apr 25 18:27:02 2016: failed to remove ./../individualsToEvaluate.txt
Mon Apr 25 18:27:02 2016: failed to remove ./../individualsToEvaluate.txt
Mon Apr 25 18:27:03 2016: failed to remove ./../individualsToEvaluate.txt
Mon Apr 25 18:27:03 2016: failed to remove ./../individualsToEvaluate.txt
Mon Apr 25 18:27:03 2016: failed to remove ./../individualsToEvaluate.txt
Mon Apr 25 18:27:03 2016: failed to remove ./../individualsToEvaluate.txt
Mon Apr 25 18:27:03 2016: failed to remove ./../individualsToEvaluate.txt
Mon Apr 25 18:27:04 2016: failed to remove ./../individualsToEvaluate.txt
Mon Apr 25 18:27:04 2016: failed to remove ./../individualsToEvaluate.txt
Mon Apr 25 18:27:04 2016: failed to remove ./../individualsToEvaluate.txt
Mon Apr 25 18:27:04 2016: failed to remove ./../individualsToEvaluate.txt
Mon Apr 25 18:27:04 2016: failed to remove ./../individualsToEvaluate.txt
Mon Apr 25 18:27:05 2016: failed to remove ./../individualsToEvaluate.txt
Mon Apr 25 18:27:05 2016: failed to remove ./../individualsToEvaluate.txt
Mon Apr 25 18:27:05 2016: failed to remove ./../individualsToEvaluate.txt
Mon Apr 25 18:27:05 2016: failed to remove ./../individualsToEvaluate.txt
Mon Apr 25 18:27:05 2016: failed to remove ./../individualsToEvaluate.txt
Mon Apr 25 18:27:06 2016: failed to remove ./../individualsToEvaluate.txt
Mon Apr 25 18:27:06 2016: failed to remove ./../individualsToEvaluate.txt
Mon Apr 25 18:27:06 2016: failed to remove ./../individualsToEvaluate.txt
Mon Apr 25 18:27:06 2016: failed to remove ./../individualsToEvaluate.txt
Mon Apr 25 18:27:06 2016: failed to remove ./../individualsToEvaluate.txt
Mon Apr 25 18:27:07 2016: failed to remove ./../individualsToEvaluate.txt
Mon Apr 25 18:27:07 2016: failed to remove ./../individualsToEvaluate.txt
Mon Apr 25 18:27:07 2016: failed to remove ./../individualsToEvaluate.txt
Mon Apr 25 18:27:07 2016: failed to remove ./../individualsToEvaluate.txt
Mon Apr 25 18:27:08 2016: failed to remove ./../individualsToEvaluate.txt
Mon Apr 25 18:27:08 2016: failed to remove ./../individualsToEvaluate.txt
Mon Apr 25 18:27:08 2016: failed to remove ./../individualsToEvaluate.txt
Mon Apr 25 18:27:08 2016: failed to remove ./../individualsToEvaluate.txt
Mon Apr 25 18:27:08 2016: failed to remove ./../individualsToEvaluate.txt
Mon Apr 25 18:27:09 2016: failed to remove ./../individualsToEvaluate.txt
Mon Apr 25 18:27:09 2016: failed to remove ./../individualsToEvaluate.txt
Mon Apr 25 18:27:09 2016: failed to remove ./../individualsToEvaluate.txt
Mon Apr 25 18:27:09 2016: failed to remove ./../individualsToEvaluate.txt
Mon Apr 25 18:27:09 2016: failed to remove ./../individualsToEvaluate.txt
Mon Apr 25 18:27:10 2016: failed to remove ./../individualsToEvaluate.txt
Mon Apr 25 18:27:10 2016: failed to remove ./../individualsToEvaluate.txt
Mon Apr 25 18:27:10 2016: failed to remove ./../individualsToEvaluate.txt
Mon Apr 25 18:27:10 2016: failed to remove ./../individualsToEvaluate.txt
Mon Apr 25 18:27:10 2016: failed to remove ./../individualsToEvaluate.txt
Mon Apr 25 18:27:11 2016: failed to remove ./../individualsToEvaluate.txt
Mon Apr 25 18:27:11 2016: failed to remove ./../individualsToEvaluate.txt
Mon Apr 25 18:27:11 2016: failed to remove ./../individualsToEvaluate.txt
Mon Apr 25 18:27:11 2016: failed to remove ./../individualsToEvaluate.txt
Mon Apr 25 18:27:11 2016: failed to remove ./../individualsToEvaluate.txt
Mon Apr 25 18:27:12 2016: failed to remove ./../individualsToEvaluate.txt
Mon Apr 25 18:27:12 2016: failed to remove ./../individualsToEvaluate.txt
Mon Apr 25 18:27:12 2016: failed to remove ./../individualsToEvaluate.txt
Mon Apr 25 18:27:12 2016: failed to remove ./../individualsToEvaluate.txt
Mon Apr 25 18:27:12 2016: failed to remove ./../individualsToEvaluate.txt
Mon Apr 25 18:27:13 2016: failed to remove ./../individualsToEvaluate.txt
Mon Apr 25 18:27:13 2016: failed to remove ./../individualsToEvaluate.txt
Mon Apr 25 18:27:13 2016: failed to remove ./../individualsToEvaluate.txt
Mon Apr 25 18:27:13 2016: failed to remove ./../individualsToEvaluate.txt
Mon Apr 25 18:27:13 2016: failed to remove ./../individualsToEvaluate.txt
Mon Apr 25 18:27:14 2016: failed to remove ./../individualsToEvaluate.txt
Mon Apr 25 18:27:14 2016: failed to remove ./../individualsToEvaluate.txt
Mon Apr 25 18:27:14 2016: failed to remove ./../individualsToEvaluate.txt
Mon Apr 25 18:27:14 2016: failed to remove ./../individualsToEvaluate.txt
Mon Apr 25 18:27:14 2016: failed to remove ./../individualsToEvaluate.txt
Mon Apr 25 18:27:15 2016: failed to remove ./../individualsToEvaluate.txt
Mon Apr 25 18:27:15 2016: failed to remove ./../individualsToEvaluate.txt
Mon Apr 25 18:27:15 2016: failed to remove ./../individualsToEvaluate.txt
Mon Apr 25 18:27:15 2016: failed to remove ./../individualsToEvaluate.txt
Mon Apr 25 18:27:15 2016: failed to remove ./../individualsToEvaluate.txt
Mon Apr 25 18:27:16 2016: failed to remove ./../individualsToEvaluate.txt
Mon Apr 25 18:27:16 2016: failed to remove ./../individualsToEvaluate.txt
Mon Apr 25 18:27:16 2016: failed to remove ./../individualsToEvaluate.txt
Mon Apr 25 18:27:16 2016: failed to remove ./../individualsToEvaluate.txt
Mon Apr 25 18:27:16 2016: failed to remove ./../individualsToEvaluate.txt
Mon Apr 25 18:27:17 2016: failed to remove ./../individualsToEvaluate.txt
Mon Apr 25 18:27:17 2016: failed to remove ./../individualsToEvaluate.txt
Mon Apr 25 18:27:17 2016: failed to remove ./../individualsToEvaluate.txt
Mon Apr 25 18:27:17 2016: failed to remove ./../individualsToEvaluate.txt
Mon Apr 25 18:27:17 2016: failed to remove ./../individualsToEvaluate.txt
Mon Apr 25 18:27:18 2016: failed to remove ./../individualsToEvaluate.txt
Mon Apr 25 18:27:18 2016: failed to remove ./../individualsToEvaluate.txt
Mon Apr 25 18:27:18 2016: failed to remove ./../individualsToEvaluate.txt
Mon Apr 25 18:27:18 2016: failed to remove ./../individualsToEvaluate.txt
Mon Apr 25 18:27:18 2016: failed to remove ./../individualsToEvaluate.txt
Mon Apr 25 18:27:19 2016: failed to remove ./../individualsToEvaluate.txt
Mon Apr 25 18:27:19 2016: failed to remove ./../individualsToEvaluate.txt
Mon Apr 25 18:27:19 2016: failed to remove ./../individualsToEvaluate.txt
Mon Apr 25 18:27:19 2016: failed to remove ./../individualsToEvaluate.txt
Mon Apr 25 18:27:20 2016: failed to remove ./../individualsToEvaluate.txt
Mon Apr 25 18:27:20 2016: failed to remove ./../individualsToEvaluate.txt
Mon Apr 25 18:27:20 2016: failed to remove ./../individualsToEvaluate.txt
Mon Apr 25 18:27:20 2016: failed to remove ./../individualsToEvaluate.txt
Mon Apr 25 18:27:20 2016: failed to remove ./../individualsToEvaluate.txt
Mon Apr 25 18:27:21 2016: failed to remove ./../individualsToEvaluate.txt
Mon Apr 25 18:27:21 2016: failed to remove ./../individualsToEvaluate.txt
Mon Apr 25 18:27:21 2016: failed to remove ./../individualsToEvaluate.txt
Mon Apr 25 18:27:21 2016: failed to remove ./../individualsToEvaluate.txt
Mon Apr 25 18:27:21 2016: failed to remove ./../individualsToEvaluate.txt
Mon Apr 25 18:27:22 2016: failed to remove ./../individualsToEvaluate.txt
Mon Apr 25 18:27:22 2016: failed to remove ./../individualsToEvaluate.txt
Mon Apr 25 18:27:22 2016: failed to remove ./../individualsToEvaluate.txt
Mon Apr 25 18:27:22 2016: failed to remove ./../individualsToEvaluate.txt
Mon Apr 25 18:27:22 2016: failed to remove ./../individualsToEvaluate.txt
Mon Apr 25 18:27:23 2016: failed to remove ./../individualsToEvaluate.txt
Mon Apr 25 18:27:23 2016: failed to remove ./../individualsToEvaluate.txt
Mon Apr 25 18:27:23 2016: failed to remove ./../individualsToEvaluate.txt
Mon Apr 25 18:27:23 2016: failed to remove ./../individualsToEvaluate.txt
Mon Apr 25 18:27:23 2016: failed to remove ./../individualsToEvaluate.txt
Mon Apr 25 18:27:24 2016: failed to remove ./../individualsToEvaluate.txt
Mon Apr 25 18:27:24 2016: failed to remove ./../individualsToEvaluate.txt
Mon Apr 25 18:27:24 2016: failed to remove ./../individualsToEvaluate.txt
Mon Apr 25 18:27:24 2016: failed to remove ./../individualsToEvaluate.txt
Mon Apr 25 18:27:24 2016: failed to remove ./../individualsToEvaluate.txt
Mon Apr 25 18:27:25 2016: failed to remove ./../individualsToEvaluate.txt
Mon Apr 25 18:27:25 2016: failed to remove ./../individualsToEvaluate.txt
Mon Apr 25 18:27:25 2016: failed to remove ./../individualsToEvaluate.txt
Mon Apr 25 18:27:25 2016: failed to remove ./../individualsToEvaluate.txt
Mon Apr 25 18:27:25 2016: failed to remove ./../individualsToEvaluate.txt
Thu Apr 28 19:40:28 2016: failed to remove test.axf
Thu Apr 28 20:04:24 2016: failed to remove test.axf
Thu Apr 28 20:14:37 2016: failed to remove test.axf
Thu Apr 28 20:15:25 2016: failed to remove test.axf
Thu Apr 28 20:46:24 2016: failed to remove test.axf
Thu Apr 28 20:58:45 2016: failed to remove test.axf
Thu Apr 28 21:01:07 2016: failed to remove test.axf
Thu Apr 28 21:03:41 2016: failed to remove test.axf
Thu Apr 28 21:10:59 2016: failed to remove test.axf
Thu Apr 28 21:40:08 2016: failed to remove test.axf
Thu Apr 28 22:08:24 2016: failed to remove test.axf
Thu Apr 28 22:27:26 2016: failed to remove test.axf
Thu Apr 28 22:28:18 2016: failed to remove test.axf
Thu Apr 28 22:30:12 2016: failed to remove test.axf
Thu Apr 28 22:37:18 2016: failed to remove test.axf
Thu Apr 28 22:37:55 2016: failed to remove test.axf
Thu Apr 28 22:38:32 2016: failed to remove test.axf
Thu Apr 28 22:53:20 2016: failed to remove test.axf
Thu Apr 28 22:53:34 2016: failed to remove test.axf
Thu Apr 28 22:53:57 2016: failed to remove test.axf
Thu Apr 28 22:54:23 2016: failed to remove test.axf
Thu Apr 28 22:54:26 2016: failed to remove test.axf
Thu Apr 28 22:54:33 2016: failed to remove test.axf
Thu Apr 28 22:55:00 2016: failed to remove test.axf
Thu Apr 28 22:55:04 2016: failed to remove test.axf
Thu Apr 28 22:55:13 2016: failed to remove test.axf
Thu Apr 28 22:55:16 2016: failed to remove test.axf
Thu Apr 28 22:55:19 2016: failed to remove test.axf
Thu Apr 28 22:55:26 2016: failed to remove test.axf
Thu Apr 28 22:55:35 2016: failed to remove test.axf
Thu Apr 28 22:55:38 2016: failed to remove test.axf
Thu Apr 28 22:55:41 2016: failed to remove test.axf
Thu Apr 28 22:56:55 2016: failed to remove test.axf
Thu Apr 28 22:57:15 2016: failed to remove test.axf
Thu Apr 28 22:57:18 2016: failed to remove test.axf
Thu Apr 28 22:57:22 2016: failed to remove test.axf
Thu Apr 28 22:57:43 2016: failed to remove test.axf
Thu Apr 28 22:58:02 2016: failed to remove test.axf
Thu Apr 28 22:58:13 2016: failed to remove test.axf
Thu Apr 28 23:01:20 2016: failed to remove test.axf
Thu Apr 28 23:33:19 2016: failed to remove test.axf
Thu Apr 28 23:47:24 2016: failed to remove test.axf
Fri Apr 29 00:34:24 2016: failed to remove test.axf
Fri Apr 29 01:20:24 2016: failed to remove test.axf
Fri Apr 29 02:16:08 2016: failed to remove test.axf
Fri Apr 29 02:39:02 2016: failed to remove test.axf
Fri Apr 29 03:03:24 2016: failed to remove test.axf
Fri Apr 29 04:07:24 2016: failed to remove test.axf
Fri Apr 29 04:53:01 2016: failed to remove test.axf
Fri Apr 29 07:37:14 2016: failed to remove test.axf
Fri Apr 29 08:46:24 2016: failed to remove test.axf
Fri Apr 29 08:59:34 2016: failed to remove test.axf
Fri Apr 29 09:45:25 2016: failed to remove test.axf
Fri Apr 29 10:21:24 2016: failed to remove test.axf
Fri Apr 29 11:32:15 2016: failed to remove test.axf
Fri Apr 29 11:45:32 2016: failed to remove test.axf
Fri Apr 29 12:27:53 2016: failed to remove test.axf
Fri Apr 29 13:06:38 2016: failed to remove test.axf
Fri Apr 29 13:41:34 2016: failed to remove test.axf
