53-vec A.s = 661.174802733
53-vec B.s = 657.382331995
53-vec C.s = 657.772485725
53-vec D.s = 684.509393992
53-vec E.s = 659.287545835
53-vec F.s = 661.803729123
53-vec G.s = 687.38119445
53-vec H.s = 657.211459406
53-vec I.s = 717.122274442
53-vec J.s = 722.634058667
53-vec K.s = 664.421388456
53-vec L.s = 655.164949098
53-vec M.s = 658.311224194
53-vec N.s = 682.766635687
53-vec O.s = 661.395005817
53-vec P.s = 657.918340731
53-vec Q.s = 655.685334387
53-vec R.s = 657.544182996
53-vec S.s = 659.712053697
53-vec T.s = 662.719284288
53-vec U.s = 657.475251599
53-vec V.s = 660.904896794
53-vec W.s = 661.412612051
53-vec X.s = 717.122274442
53-vec Y.s = 655.775295003
53-vec Z.s = 661.248375945
53-vec 2.s = 681.272835044
53-vec 3.s = 665.710728714
53-vec 4.s = 659.438234251
53-vec 5.s = 659.529746611
53-vec 6.s = 683.072629155
53-vec 7.s = 697.126441305
53-vec AA.s = 664.040980038
53-vec AB.s = 664.331400685
53-vec AC.s = 683.677394507
53-vec AD.s = 661.227680513
53-vec AE.s = 682.919576083
53-vec AF.s = 660.828561416
53-vec AG.s = 658.747911579
53-vec AH.s = 697.215519502
53-vec AI.s = 685.426210264
53-vec AJ.s = 682.766635687
53-vec AK.s = 685.802460373
53-vec AL.s = 664.421388456
53-vec AM.s = 681.577110103
53-vec AN.s = 682.766635687
53-vec AO.s = 682.766635687
53-vec AP.s = 662.092395254
53-vec AQ.s = 687.38119445
53-vec AR.s = 658.61994065
53-vec AS.s = 693.730933368
53-vec AT.s = 682.766635687
53-vec AU.s = 662.108013919
53-vec AV.s = 682.149292896
53-vec AW.s = 664.418629566
53-vec AX.s = 687.048569375
53-vec AY.s = 657.620902756
53-vec AZ.s = 683.800368288
53-vec A2.s = 661.217338303
53-vec A3.s = 654.451493391
53-vec A4.s = 682.766635687
53-vec A5.s = 661.804356219
53-vec A6.s = 683.647264099
53-vec A7.s = 659.762327574
53-vec BA.s = 658.306702071
53-vec BB.s = 683.147873165
53-vec BC.s = 682.766635687
53-vec BD.s = 661.986045618
53-vec BE.s = 662.363579228
53-vec BF.s = 666.094227887
53-vec BG.s = 683.682517459
53-vec BH.s = 657.518305812
53-vec BI.s = 659.926252686
53-vec BJ.s = 661.986045618
53-vec BK.s = 682.766635687
53-vec BL.s = 683.105916926
53-vec BM.s = 660.602650267
53-vec BN.s = 685.643910049
53-vec BO.s = 682.766635687
53-vec BP.s = 663.265635499
53-vec BQ.s = 681.778792155
53-vec BR.s = 661.018478932
53-vec BS.s = 660.813947483
53-vec BT.s = 682.208339912
53-vec BU.s = 699.803286383
53-vec BV.s = 682.766635687
53-vec BW.s = 688.097447691
53-vec BX.s = 684.945851612
53-vec BY.s = 659.404303245
53-vec BZ.s = 659.266952509
53-vec B2.s = 687.38119445
53-vec B3.s = 682.766635687
53-vec B4.s = 699.674252672
53-vec B5.s = 682.766635687
53-vec B6.s = 659.979551898
53-vec B7.s = 682.679717028
53-vec CA.s = 682.850082725
53-vec CB.s = 682.236528711
53-vec CC.s = 660.432233567
53-vec CD.s = 685.487276383
53-vec CE.s = 661.986045618
53-vec CG.s = 659.266952509
53-vec CH.s = 687.048569375
53-vec CI.s = 658.164729233
53-vec CJ.s = 657.544182996
53-vec CK.s = 682.766635687
53-vec CM.s = 680.896521668
53-vec CO.s = 660.602650267
53-vec CP.s = 699.727516463
53-vec CQ.s = 659.649400781
53-vec CR.s = 682.766635687
53-vec CV.s = 697.237516617
53-vec CW.s = 662.910355586
53-vec C3.s = 683.647264099
53-vec C5.s = 664.85245604
53-vec C6.s = 666.70034089
53-vec C7.s = 655.53801325
53-vec DA.s = 682.610016455
53-vec DB.s = 659.438234251
53-vec DC.s = 698.548721305
53-vec DD.s = 656.357911268
53-vec DE.s = 657.621159971
53-vec DG.s = 657.702091899
53-vec DH.s = 684.015914004
53-vec DI.s = 683.214369714
53-vec DL.s = 654.451493391
53-vec DM.s = 656.394362412
53-vec DP.s = 657.475251599
53-vec DQ.s = 657.382331995
53-vec DR.s = 658.99629793
53-vec DS.s = 661.927104157
53-vec DT.s = 654.616166447
53-vec DU.s = 662.092739963
53-vec DW.s = 657.418644266
53-vec DZ.s = 657.666471709
53-vec D2.s = 656.939108493
53-vec D3.s = 658.220448119
53-vec D4.s = 657.544182996
53-vec D5.s = 658.164729233
53-vec D6.s = 654.451493391
53-vec D7.s = 663.493853113
53-vec EA.s = 682.766635687
53-vec EB.s = 657.743690281
53-vec EC.s = 683.832252183
53-vec ED.s = 657.863686935
53-vec EE.s = 658.547091965
53-vec EF.s = 683.097239782
53-vec EG.s = 657.772485725
53-vec EJ.s = 658.267817812
53-vec EM.s = 657.213733229
53-vec EN.s = 659.414701531
53-vec EO.s = 658.420103636
53-vec EP.s = 699.727516463
53-vec EQ.s = 657.258836743
53-vec ER.s = 660.672398575
53-vec ES.s = 657.382331995
53-vec ET.s = 663.700967866
53-vec EU.s = 659.721571929
53-vec EV.s = 664.421388456
53-vec EW.s = 665.459495535
53-vec EX.s = 656.622004289
53-vec EY.s = 657.518305812
53-vec EZ.s = 659.806829693
53-vec E2.s = 664.527916037
53-vec E3.s = 682.563791538
53-vec E4.s = 657.252086962
53-vec E5.s = 654.451493391
53-vec E6.s = 682.907896626
53-vec E7.s = 656.740521269
53-vec FA.s = 655.775295003
53-vec FB.s = 687.38119445
53-vec FC.s = 654.451493391
53-vec FE.s = 654.451493391
53-vec FF.s = 656.902341661
53-vec FG.s = 654.451493391
53-vec FH.s = 658.160758496
53-vec FI.s = 657.539325072
53-vec FJ.s = 685.007477336
53-vec FK.s = 682.766635687
53-vec FL.s = 657.163864552
53-vec FM.s = 688.631486739
53-vec FO.s = 657.476250271
53-vec FQ.s = 654.451493391
53-vec FR.s = 654.451493391
53-vec FS.s = 654.97900256
53-vec FT.s = 656.902341661
53-vec FV.s = 660.09540226
53-vec FX.s = 657.252086962
53-vec FY.s = 657.455812114
53-vec FZ.s = 660.551611903
53-vec F2.s = 654.451493391
53-vec F3.s = 656.007053147
53-vec F4.s = 682.283822619
53-vec F5.s = 657.046304275
53-vec F6.s = 655.17479552
53-vec F7.s = 654.451493391
53-vec GA.s = 657.506256864
53-vec GB.s = 657.258836743
53-vec GC.s = 654.451493391
53-vec GD.s = 657.392677645
53-vec GE.s = 658.897424709
53-vec GF.s = 654.451493391
53-vec GG.s = 656.546269252
53-vec GH.s = 659.96488056
53-vec GI.s = 657.046304275
53-vec GJ.s = 661.499339249
53-vec GK.s = 654.451493391
53-vec GL.s = 654.451493391
53-vec GM.s = 654.451493391
53-vec GN.s = 654.451493391
53-vec GO.s = 658.31933433
53-vec GQ.s = 656.706088055
53-vec GR.s = 656.474524874
53-vec GS.s = 657.045660791
53-vec GT.s = 664.421388456
53-vec GU.s = 659.82016911
53-vec GV.s = 656.622004289
53-vec GW.s = 656.740521269
53-vec GX.s = 656.905769001
53-vec GY.s = 654.451493391
53-vec GZ.s = 657.893595722
53-vec G2.s = 656.891849776
53-vec G3.s = 654.451493391
53-vec G4.s = 662.474674823
53-vec G6.s = 654.451493391
53-vec G7.s = 654.451493391
53-vec HA.s = 654.451493391
53-vec HB.s = 654.451493391
53-vec HC.s = 654.451493391
53-vec HD.s = 655.17479552
53-vec HE.s = 654.616166447
53-vec HF.s = 658.300939084
53-vec HG.s = 655.345170997
53-vec HH.s = 658.918961735
53-vec HI.s = 682.23792379
53-vec HJ.s = 656.920420143
53-vec HK.s = 654.451493391
53-vec HL.s = 654.451493391
53-vec HM.s = 688.631486739
53-vec HN.s = 654.868565894
53-vec HO.s = 654.451493391
53-vec HP.s = 664.546149378
53-vec HQ.s = 654.451493391
53-vec HR.s = 654.451493391
53-vec HS.s = 654.451493391
53-vec HT.s = 661.591478328
53-vec HU.s = 654.451493391
53-vec HV.s = 654.451493391
53-vec HW.s = 654.872907035
53-vec HX.s = 684.589402207
53-vec HZ.s = 654.451493391
53-vec H2.s = 654.451493391
53-vec H3.s = 654.451493391
53-vec H4.s = 653.98990849
53-vec H5.s = 682.766635687
53-vec H6.s = 654.451493391
53-vec H7.s = 654.451493391
53-vec IB.s = 654.451493391
53-vec IC.s = 654.451493391
53-vec ID.s = 654.451493391
53-vec IE.s = 654.451493391
53-vec IF.s = 654.451493391
53-vec IG.s = 654.451493391
53-vec IH.s = 654.451493391
53-vec II.s = 654.451493391
53-vec IJ.s = 654.451493391
53-vec IK.s = 658.093228379
53-vec IL.s = 654.451493391
53-vec IM.s = 654.451493391
53-vec IN.s = 654.451493391
53-vec IO.s = 654.451493391
53-vec IP.s = 654.451493391
53-vec IQ.s = 654.451493391
53-vec IR.s = 654.451493391
53-vec IS.s = 654.451493391
53-vec IT.s = 654.451493391
53-vec IU.s = 654.451493391
53-vec IV.s = 654.451493391
53-vec IX.s = 654.451493391
53-vec IY.s = 654.451493391
53-vec IZ.s = 653.98990849
53-vec I2.s = 654.451493391
53-vec I3.s = 654.451493391
53-vec I4.s = 654.451493391
53-vec I7.s = 661.355919094
53-vec JA.s = 654.451493391
53-vec JB.s = 654.451493391
53-vec JC.s = 654.451493391
53-vec JD.s = 660.32709233
53-vec JE.s = 654.451493391
53-vec JF.s = 684.808048826
53-vec JG.s = 654.451493391
53-vec JH.s = 654.451493391
53-vec JI.s = 654.451493391
53-vec JJ.s = 654.451493391
53-vec JK.s = 658.670857432
53-vec JL.s = 654.451493391
53-vec JM.s = 654.451493391
53-vec JN.s = 654.451493391
53-vec JO.s = 654.451493391
53-vec JP.s = 654.451493391
53-vec JQ.s = 654.451493391
53-vec JR.s = 654.451493391
53-vec JS.s = 654.451493391
53-vec JT.s = 654.451493391
53-vec JU.s = 682.766635687
53-vec JV.s = 653.98990849
53-vec JW.s = 654.451493391
53-vec JX.s = 654.451493391
53-vec JY.s = 682.766635687
53-vec JZ.s = 653.98990849
53-vec J2.s = 662.244209155
53-vec J3.s = 654.451493391
53-vec J4.s = 681.636959795
53-vec J6.s = 654.304195786
53-vec J7.s = 664.421388456
53-vec KA.s = 654.451493391
53-vec KC.s = 654.451493391
53-vec KD.s = 722.634058667
53-vec KE.s = 657.630496208
53-vec KF.s = 682.766635687
53-vec KG.s = 653.531750407
53-vec KH.s = 653.98990849
53-vec KI.s = 654.451493391
53-vec KJ.s = 654.451493391
53-vec KK.s = 654.451493391
53-vec KL.s = 654.261751356
53-vec KM.s = 654.451493391
53-vec KN.s = 654.451493391
53-vec KO.s = 654.451493391
53-vec KP.s = 653.98990849
53-vec KQ.s = 654.451493391
53-vec KR.s = 654.451493391
53-vec KS.s = 654.451493391
53-vec KU.s = 654.451493391
53-vec KV.s = 658.053439254
53-vec KW.s = 654.451493391
53-vec KX.s = 654.451493391
53-vec KY.s = 655.825284771
53-vec KZ.s = 654.451493391
53-vec K2.s = 653.98990849
53-vec K3.s = 654.451493391
53-vec K4.s = 654.451493391
53-vec K5.s = 653.254860369
53-vec K6.s = 654.041639625
53-vec K7.s = 657.45957374
53-vec LA.s = 654.546475116
53-vec LB.s = 653.98990849
53-vec LC.s = 654.451493391
53-vec LD.s = 654.451493391
53-vec LE.s = 656.587814833
53-vec LF.s = 654.451493391
53-vec LI.s = 654.451493391
53-vec LJ.s = 656.798402228
53-vec LK.s = 655.730527404
53-vec LL.s = 654.451493391
53-vec LM.s = 654.451493391
53-vec LN.s = 654.451493391
53-vec LO.s = 682.766635687
53-vec LP.s = 653.98990849
53-vec LQ.s = 682.766635687
53-vec LR.s = 659.438544939
53-vec LS.s = 654.451493391
53-vec LT.s = 653.98990849
53-vec LU.s = 653.98990849
53-vec LW.s = 654.451493391
53-vec LX.s = 653.98990849
53-vec LZ.s = 653.98990849
53-vec L2.s = 654.451493391
53-vec L3.s = 656.10844255
53-vec L4.s = 654.451493391
53-vec L5.s = 658.532538263
53-vec L6.s = 654.451493391
53-vec L7.s = 654.451493391
53-vec MA.s = 654.451493391
53-vec MB.s = 656.691819836
53-vec MC.s = 654.451493391
53-vec MD.s = 654.451493391
53-vec ME.s = 654.451493391
53-vec MF.s = 654.451493391
53-vec MI.s = 656.759329863
53-vec MJ.s = 653.98990849
53-vec MK.s = 654.695189657
53-vec ML.s = 682.766635687
53-vec MM.s = 653.913400062
53-vec MN.s = 661.156636397
53-vec MO.s = 654.451493391
53-vec MP.s = 653.98990849
53-vec MQ.s = 656.916937706
53-vec MR.s = 654.451493391
53-vec MS.s = 654.451493391
53-vec MT.s = 654.451493391
53-vec MU.s = 653.98990849
53-vec MV.s = 655.198991424
53-vec MW.s = 654.451493391
53-vec MX.s = 653.98990849
53-vec MY.s = 654.451493391
53-vec MZ.s = 653.98990849
53-vec M2.s = 653.144228037
53-vec M3.s = 653.905088228
53-vec M4.s = 654.451493391
53-vec M5.s = 654.451493391
53-vec M6.s = 653.913400062
53-vec M7.s = 682.766635687
53-vec NA.s = 656.400864641
53-vec NB.s = 655.034318773
53-vec NC.s = 653.98990849
53-vec ND.s = 655.064807908
53-vec NE.s = 656.901058916
53-vec NF.s = 653.98990849
53-vec NG.s = 698.358394264
53-vec NH.s = 682.766635687
53-vec NI.s = 653.913400062
53-vec NJ.s = 682.766635687
53-vec NK.s = 654.451493391
53-vec NL.s = 653.98990849
53-vec NM.s = 656.467647723
53-vec NN.s = 655.370619272
53-vec NO.s = 654.451493391
53-vec NP.s = 653.98990849
53-vec NQ.s = 655.598480357
53-vec NR.s = 653.98990849
53-vec NS.s = 682.458792876
53-vec NT.s = 653.98990849
53-vec NU.s = 653.98990849
53-vec NV.s = 654.451493391
53-vec NW.s = 654.353767966
53-vec NX.s = 653.98990849
53-vec NY.s = 653.73010252
53-vec NZ.s = 656.440714314
53-vec N2.s = 653.98990849
53-vec N3.s = 653.98990849
53-vec N4.s = 654.935953697
53-vec N6.s = 653.98990849
53-vec N7.s = 654.742955304
53-vec OA.s = 654.348941039
53-vec OB.s = 656.656011358
53-vec OC.s = 655.328629623
53-vec OD.s = 653.251665753
53-vec OF.s = 655.677189823
53-vec OG.s = 660.867269216
53-vec OH.s = 653.98990849
53-vec OI.s = 653.98990849
53-vec OJ.s = 654.451493391
53-vec OK.s = 653.913400062
53-vec OL.s = 653.98990849
53-vec OM.s = 653.98990849
53-vec ON.s = 653.98990849
53-vec OO.s = 653.98990849
53-vec OP.s = 654.451493391
53-vec OQ.s = 653.254860369
53-vec OR.s = 653.98990849
53-vec OS.s = 653.98990849
53-vec OT.s = 653.98990849
53-vec OV.s = 653.624776082
53-vec OW.s = 656.30942512
53-vec O2.s = 653.913400062
53-vec O3.s = 653.98990849
53-vec O4.s = 653.98990849
53-vec O5.s = 653.933839685
53-vec O6.s = 682.766635687
53-vec O7.s = 653.73010252
53-vec PA.s = 653.98990849
53-vec PB.s = 653.98990849
53-vec PC.s = 655.864538184
53-vec PD.s = 653.98990849
53-vec PE.s = 653.98990849
53-vec PF.s = 653.98990849
53-vec PG.s = 653.98990849
53-vec PH.s = 653.98990849
53-vec PI.s = 653.98990849
53-vec PJ.s = 652.986516937
53-vec PK.s = 654.075797095
53-vec PL.s = 653.950665958
53-vec PM.s = 693.128486404
53-vec PN.s = 653.892259022
53-vec PO.s = 653.98990849
53-vec PP.s = 654.348941039
53-vec PQ.s = 660.860514251
53-vec PR.s = 653.913400062
53-vec PS.s = 653.531750407
53-vec PT.s = 698.548721305
53-vec PU.s = 653.98990849
53-vec PV.s = 655.853554347
53-vec PW.s = 653.645746369
53-vec PX.s = 653.933839685
53-vec PY.s = 654.451493391
53-vec P3.s = 659.084141216
53-vec P4.s = 653.779987809
53-vec P5.s = 653.531750407
53-vec P6.s = 653.98990849
53-vec P7.s = 653.251665753
53-vec QA.s = 653.98990849
53-vec QB.s = 656.913613743
53-vec QC.s = 653.73010252
53-vec QD.s = 653.98990849
53-vec QE.s = 653.624776082
53-vec QF.s = 653.444748232
53-vec QG.s = 653.913400062
53-vec QH.s = 653.913400062
53-vec QI.s = 652.986516937
53-vec QJ.s = 653.913400062
53-vec QK.s = 653.513385795
53-vec QL.s = 653.98990849
53-vec QM.s = 652.986516937
53-vec QN.s = 653.98990849
53-vec QO.s = 653.00864769
53-vec QP.s = 653.73010252
53-vec QQ.s = 653.531750407
53-vec QR.s = 653.251665753
53-vec QS.s = 653.73010252
53-vec QT.s = 654.742955304
53-vec QU.s = 652.986516937
53-vec QV.s = 653.531750407
53-vec QW.s = 653.913400062
53-vec QX.s = 653.698592476
53-vec QY.s = 653.73010252
53-vec QZ.s = 681.267713286
53-vec Q2.s = 653.645746369
53-vec Q3.s = 653.00864769
53-vec Q4.s = 652.986516937
53-vec Q5.s = 653.233254351
53-vec Q6.s = 654.102382051
53-vec Q7.s = 653.98990849
53-vec RA.s = 653.73010252
53-vec RB.s = 653.779987809
53-vec RC.s = 653.643156432
53-vec RD.s = 653.73010252
53-vec RE.s = 656.093986241
53-vec RF.s = 653.98990849
53-vec RG.s = 655.184278207
53-vec RH.s = 653.531750407
53-vec RI.s = 653.892259022
53-vec RJ.s = 653.913400062
53-vec RK.s = 652.986516937
53-vec RL.s = 653.73010252
53-vec RM.s = 652.972401971
53-vec RN.s = 653.624776082
53-vec RO.s = 653.531750407
53-vec RP.s = 654.204609393
53-vec RQ.s = 653.241349973
53-vec RR.s = 653.555524341
53-vec RS.s = 654.779310108
53-vec RT.s = 653.254860369
53-vec RU.s = 652.986516937
53-vec RV.s = 653.00864769
53-vec RW.s = 661.148991131
53-vec RZ.s = 652.986516937
53-vec R2.s = 654.204609393
53-vec R5.s = 653.251665753
53-vec R6.s = 652.972401971
53-vec R7.s = 654.116637286
53-vec SA.s = 653.531750407
53-vec SB.s = 653.531750407
53-vec SC.s = 653.531750407
53-vec SD.s = 682.413050004
53-vec SE.s = 653.241349973
53-vec SF.s = 653.241349973
53-vec SG.s = 655.976917003
53-vec SH.s = 653.230486513
53-vec SI.s = 654.727238833
53-vec SJ.s = 653.531750407
53-vec SK.s = 653.531750407
53-vec SL.s = 655.65095567
53-vec SM.s = 662.272178952
53-vec SN.s = 653.531750407
53-vec SO.s = 654.204609393
53-vec SP.s = 653.00864769
53-vec SQ.s = 655.715814188
53-vec SR.s = 653.254860369
53-vec SS.s = 653.251665753
53-vec ST.s = 653.00864769
53-vec SU.s = 653.624776082
53-vec SV.s = 653.251665753
53-vec SW.s = 655.606607947
53-vec SX.s = 653.98990849
53-vec SY.s = 653.2339431
53-vec SZ.s = 653.251665753
53-vec S2.s = 682.309460515
53-vec S3.s = 652.986516937
53-vec S4.s = 652.986516937
53-vec S5.s = 653.455089913
53-vec S6.s = 653.254860369
53-vec TB.s = 652.972401971
53-vec TC.s = 653.376487109
53-vec TD.s = 653.230486513
53-vec TE.s = 653.241349973
53-vec TG.s = 653.746189917
53-vec TH.s = 653.446626308
53-vec TI.s = 654.066816422
53-vec TJ.s = 653.00864769
53-vec TM.s = 652.986516937
53-vec TN.s = 653.228747277
53-vec TO.s = 654.075797095
53-vec TP.s = 652.986516937
53-vec TQ.s = 653.251665753
53-vec TS.s = 652.986516937
53-vec TT.s = 654.592172468
53-vec TU.s = 653.98990849
53-vec TX.s = 652.986516937
53-vec TY.s = 653.233254351
53-vec TZ.s = 653.732329294
53-vec T2.s = 652.986516937
53-vec T3.s = 653.00864769
53-vec T4.s = 652.986516937
53-vec T5.s = 653.286855183
53-vec T6.s = 652.986516937
53-vec T7.s = 653.230486513
53-vec UA.s = 653.144228037
53-vec UB.s = 653.230486513
53-vec UC.s = 652.986516937
53-vec UD.s = 657.152178373
53-vec UE.s = 652.981373753
53-vec UF.s = 653.233254351
53-vec UG.s = 652.972401971
53-vec UH.s = 654.187439867
53-vec UI.s = 653.144228037
53-vec UJ.s = 653.00864769
53-vec UK.s = 653.00864769
53-vec UL.s = 652.986516937
53-vec UM.s = 653.621146588
53-vec UN.s = 653.230486513
53-vec UO.s = 652.986516937
53-vec UP.s = 653.010630023
53-vec UQ.s = 653.237545299
53-vec UR.s = 652.986516937
53-vec UT.s = 652.979291158
53-vec UU.s = 652.995380706
53-vec UV.s = 654.570956075
53-vec UW.s = 652.986516937
53-vec UX.s = 654.960131117
53-vec UY.s = 652.986516937
53-vec UZ.s = 652.986516937
53-vec U2.s = 652.986516937
53-vec U3.s = 652.986516937
53-vec U4.s = 652.986516937
53-vec U5.s = 653.316176942
53-vec U6.s = 652.981373753
53-vec U7.s = 652.986516937
53-vec VA.s = 653.00864769
53-vec VB.s = 653.785711629
53-vec VD.s = 653.00864769
53-vec VE.s = 652.986516937
53-vec VF.s = 654.187439867
53-vec VL.s = 652.986516937
53-vec VM.s = 680.896521668
53-vec VN.s = 653.179326358
53-vec VO.s = 652.972401971
53-vec VR.s = 682.766635687
53-vec VS.s = 652.986516937
53-vec VT.s = 652.986516937
53-vec VU.s = 652.986516937
53-vec VV.s = 653.98990849
53-vec VW.s = 653.2339431
53-vec VZ.s = 652.981373753
53-vec V2.s = 656.97029984
53-vec V3.s = 652.986516937
53-vec V4.s = 652.986516937
53-vec V5.s = 653.144228037
53-vec V6.s = 652.981373753
53-vec V7.s = 653.00864769
53-vec WA.s = 652.986516937
53-vec WB.s = 652.961964205
53-vec WC.s = 652.986516937
53-vec WD.s = 652.986516937
53-vec WE.s = 652.986516937
53-vec WF.s = 652.986516937
53-vec WH.s = 652.986516937
53-vec WK.s = 652.986516937
53-vec WL.s = 658.532538263
53-vec WM.s = 652.981373753
53-vec WN.s = 653.193759849
53-vec WO.s = 653.913400062
53-vec WP.s = 654.451493391
53-vec WQ.s = 652.986516937
53-vec WR.s = 652.986516937
53-vec WS.s = 652.986516937
53-vec WT.s = 652.986516937
53-vec WU.s = 653.794403251
53-vec WV.s = 653.116844778
53-vec WW.s = 652.986516937
53-vec WX.s = 655.715814188
53-vec WY.s = 652.986516937
53-vec WZ.s = 652.986516937
53-vec W2.s = 652.986516937
53-vec W3.s = 652.986516937
53-vec W4.s = 652.972401971
53-vec W5.s = 652.986516937
53-vec W6.s = 652.972401971
53-vec W7.s = 656.878485384
53-vec XA.s = 653.805117494
53-vec XB.s = 652.961964205
53-vec XC.s = 652.986516937
53-vec XD.s = 653.700032796
53-vec XE.s = 652.986516937
53-vec XF.s = 652.986516937
53-vec XG.s = 652.986516937
53-vec XH.s = 652.981373753
53-vec XI.s = 652.986516937
53-vec XJ.s = 652.986516937
53-vec XK.s = 652.986516937
53-vec XL.s = 655.393203366
53-vec XM.s = 652.986516937
53-vec XN.s = 652.986516937
53-vec XO.s = 652.986516937
53-vec XP.s = 652.986516937
53-vec XQ.s = 652.986516937
53-vec XR.s = 652.981373753
53-vec XS.s = 655.715814188
53-vec XT.s = 652.986516937
53-vec XU.s = 652.996735413
53-vec XV.s = 652.981373753
53-vec XW.s = 652.972401971
53-vec XX.s = 653.079774197
53-vec XY.s = 657.289638024
53-vec XZ.s = 652.986516937
53-vec X2.s = 652.986516937
53-vec X3.s = 652.992132184
53-vec X4.s = 653.98990849
53-vec X5.s = 652.972401971
53-vec X6.s = 652.986516937
53-vec X7.s = 652.972401971
53-vec YA.s = 652.972401971
53-vec YC.s = 652.986516937
53-vec YD.s = 652.961964205
53-vec YE.s = 652.981373753
53-vec YF.s = 652.863437058
53-vec YG.s = 652.972401971
53-vec YH.s = 656.491414335
53-vec YI.s = 682.766635687
53-vec YJ.s = 652.972401971
53-vec YK.s = 652.986516937
53-vec YL.s = 656.297463719
53-vec YM.s = 652.986516937
53-vec YN.s = 654.451493391
53-vec YO.s = 652.981373753
53-vec YP.s = 653.144228037
53-vec YQ.s = 652.995380706
53-vec YR.s = 652.986516937
53-vec YS.s = 652.972401971
53-vec YT.s = 653.98990849
53-vec YU.s = 653.2339431
53-vec YV.s = 652.863437058
53-vec YW.s = 652.961964205
53-vec YX.s = 652.972401971
53-vec YY.s = 652.972401971
53-vec YZ.s = 652.981373753
53-vec Y3.s = 653.308237234
53-vec Y4.s = 652.981373753
53-vec Y5.s = 652.972401971
53-vec Y6.s = 653.144228037
53-vec Y7.s = 653.365156975
53-vec ZA.s = 652.979291158
53-vec ZB.s = 652.961964205
53-vec ZC.s = 652.972401971
53-vec ZD.s = 652.981373753
53-vec ZE.s = 658.929400098
53-vec ZF.s = 655.19196548
53-vec ZG.s = 652.981373753
53-vec ZH.s = 652.972401971
53-vec ZI.s = 652.981373753
53-vec ZJ.s = 652.981373753
53-vec ZK.s = 653.913943608
53-vec ZL.s = 682.766635687
53-vec ZM.s = 653.150476042
53-vec ZN.s = 652.990800591
53-vec ZO.s = 652.972401971
53-vec ZP.s = 652.986516937
53-vec ZQ.s = 652.981373753
53-vec ZR.s = 657.772485725
53-vec ZS.s = 652.979291158
53-vec ZT.s = 653.858811357
53-vec ZU.s = 656.093986241
53-vec ZV.s = 652.972401971
53-vec ZY.s = 653.98990849
53-vec ZZ.s = 653.162643297
53-vec Z2.s = 654.451493391
53-vec Z3.s = 652.938341701
53-vec Z4.s = 652.972401971
53-vec Z5.s = 652.972401971
53-vec Z7.s = 652.972401971
53-vec 2A.s = 654.874537647
53-vec 2B.s = 652.972401971
53-vec 2C.s = 656.953799706
53-vec 2D.s = 652.979291158
53-vec 2E.s = 652.863437058
53-vec 2H.s = 652.992132184
53-vec 2I.s = 652.972401971
53-vec 2J.s = 652.972401971
53-vec 2K.s = 655.310851393
53-vec 2L.s = 652.979291158
53-vec 2M.s = 652.972401971
53-vec 2N.s = 652.972401971
53-vec 2O.s = 652.981373753
53-vec 2P.s = 652.972401971
53-vec 2Q.s = 652.972401971
53-vec 2R.s = 653.316916478
53-vec 2S.s = 652.972401971
53-vec 2T.s = 654.760125436
53-vec 2U.s = 653.858811357
