universal rejuvenation
delay when all inputs zero prob = 1.0 is 803.55
delay when all inputs zero prob = 0.0 is 635.33

delay,add_8_long.asm,add_8_short.asm,add_32_long.asm,add_32_short.asm,and_8_long.asm,and_8_short.asm,and_32_long.asm,and_32_short.asm,div_8_long.asm,div_8_short.asm,div_32_long.asm,div_32_short.asm,mixed_8_long.asm,mixed_8_short.asm,mixed_32_long.asm,mixed_32_short.asm,mul_8_long.asm,mul_8_short.asm,mul_32_long.asm,mul_32_short.asm,nor_8_long.asm,nor_8_short.asm,nor_32_long.asm,nor_32_short.asm,or_8_long.asm,or_8_short.asm,or_32_long.asm,or_32_short.asm,sub_8_long.asm,sub_8_short.asm,sub_32_long.asm,sub_32_short.asm,xor_8_long.asm,xor_8_short.asm,xor_32_long.asm,xor_32_short.asm
0%,682.14,682.70,662.61,665.63,657.85,657.24,663.39,664.26,684.54,684.87,663.25,664.26,682.69,656.83,665.20,663.20,681.79,683.58,668.54,665.97,657.11,657.10,665.70,665.05,657.52,658.89,668.96,664.42,682.22,682.70,664.12,664.64,658.28,657.16,662.44,664.42
1e-10%,682.14,682.70,662.61,665.63,657.85,657.24,663.39,664.27,684.54,684.87,663.25,664.26,682.69,656.83,665.21,663.20,681.79,683.58,668.54,665.98,657.11,657.10,665.70,665.05,657.52,658.89,668.97,664.42,682.22,682.70,664.13,664.64,658.28,657.16,662.45,664.42
1e-09%,682.14,682.70,662.61,665.63,657.85,657.24,663.40,664.27,684.54,684.87,663.25,664.26,682.69,656.83,665.21,663.20,681.79,683.58,668.54,665.98,657.11,657.10,665.70,665.05,657.52,658.89,668.97,664.42,682.22,682.70,664.13,664.64,658.28,657.16,662.45,664.42
1e-08%,682.14,682.70,662.61,665.63,657.85,657.24,663.40,664.27,684.54,684.87,663.25,664.26,682.69,656.83,665.21,663.20,681.79,683.58,668.55,665.98,657.11,657.10,665.70,665.06,657.52,658.89,668.97,664.42,682.22,682.70,664.13,664.64,658.28,657.16,662.45,664.42
1e-07%,682.14,682.70,662.61,665.63,657.85,657.24,663.40,664.27,684.54,684.87,663.25,664.26,682.69,656.83,665.21,663.21,681.79,683.58,668.55,665.98,657.11,657.10,665.71,665.06,657.52,658.89,668.97,664.43,682.22,682.70,664.13,664.64,658.28,657.16,662.45,664.42
1e-06%,682.14,682.70,662.61,665.63,657.85,657.24,663.40,664.27,684.54,684.87,663.25,664.26,682.69,656.83,665.21,663.21,681.79,683.58,668.55,665.98,657.11,657.10,665.71,665.06,657.52,658.89,668.97,664.43,682.22,682.70,664.13,664.65,658.28,657.16,662.45,664.43
1e-05%,682.14,682.70,662.61,665.63,657.85,657.24,663.40,664.28,684.54,684.87,663.25,664.26,682.69,656.83,665.22,663.21,681.79,683.58,668.55,665.99,657.11,657.10,665.71,665.06,657.52,658.89,668.97,664.43,682.22,682.69,664.14,664.65,658.28,657.16,662.46,664.43
0.0001%,682.13,682.69,662.61,665.62,657.85,657.24,663.41,664.28,684.53,684.86,663.25,664.26,682.68,656.83,665.22,663.22,681.78,683.57,668.56,665.99,657.11,657.10,665.72,665.07,657.52,658.89,668.98,664.44,682.22,682.69,664.14,664.65,658.28,657.16,662.46,664.43
0.001%,682.08,682.64,662.61,665.62,657.85,657.24,663.42,664.29,684.48,684.81,663.25,664.26,682.63,656.83,665.22,663.22,681.73,683.52,668.55,665.99,657.10,657.09,665.72,665.07,657.51,658.89,668.97,664.44,682.17,682.64,664.15,664.66,658.28,657.16,662.47,664.44
0.01%,681.58,682.14,662.56,665.57,657.84,657.23,663.41,664.28,683.98,684.31,663.24,664.25,682.13,656.78,665.18,663.22,681.23,683.02,668.43,665.95,657.05,657.04,665.68,665.03,657.47,658.84,668.86,664.40,681.67,682.14,664.14,664.65,658.26,657.14,662.46,664.43
0.05%,679.71,680.28,662.38,665.36,657.78,657.18,663.34,664.21,682.11,682.45,663.18,664.19,680.27,656.61,664.99,663.15,679.37,681.15,668.03,665.82,656.88,656.87,665.49,664.84,657.29,658.66,668.38,664.21,679.80,680.27,664.07,664.59,658.21,657.09,662.39,664.37
0.1%,677.93,678.49,662.21,665.16,657.72,657.11,663.26,664.13,680.33,680.66,663.12,664.12,678.48,656.43,664.79,663.06,677.58,679.37,667.68,665.74,656.70,656.69,665.29,664.64,657.11,658.49,667.92,664.01,678.01,678.49,663.99,664.50,658.15,657.03,662.31,664.28
0.2%,675.38,675.94,661.95,664.85,657.61,657.00,663.10,663.97,677.78,678.11,663.00,664.00,675.93,656.17,664.48,662.91,675.03,676.82,667.15,665.57,656.45,656.44,664.99,664.33,656.86,658.23,667.25,663.70,675.47,675.94,663.83,664.34,658.04,656.92,662.15,664.12
0.5%,671.15,671.71,661.48,664.26,657.35,656.74,662.73,663.59,673.54,673.87,662.71,663.71,671.70,655.72,663.91,662.53,670.80,672.59,666.18,665.18,655.99,655.98,664.41,663.76,656.40,657.77,666.09,663.13,671.24,671.71,663.45,663.96,657.77,656.66,661.78,663.75
1%,667.74,668.30,661.06,663.71,657.05,656.44,662.30,663.15,670.10,670.43,662.37,663.37,668.28,655.32,663.36,662.10,667.38,669.16,665.27,664.73,655.59,655.58,663.88,663.21,656.03,657.39,665.07,662.59,667.82,668.29,663.02,663.53,657.47,656.36,661.35,663.31
10%,658.21,658.76,659.41,661.46,655.63,655.05,660.26,661.00,660.27,660.60,660.38,661.33,658.70,654.02,661.10,660.02,657.82,659.52,661.62,662.29,654.26,654.25,661.78,661.00,654.67,655.97,661.50,660.44,658.27,658.73,660.89,661.35,656.05,654.99,659.32,661.22
100%,651.98,651.98,651.98,651.98,651.98,651.98,651.98,651.98,651.98,651.98,651.98,651.98,651.98,651.98,651.98,651.98,651.98,651.98,651.98,651.98,651.98,651.98,651.98,651.98,651.98,651.98,651.98,651.98,651.98,651.98,651.98,651.98,651.98,651.98,651.98,651.98
there are 8284 nets with pz in range (0.9999999999978891, 1)
