universal rejuvenation
delay when all inputs zero prob = 1.0 is 983.46
delay when all inputs zero prob = 0.0 is 635.33

delay,ind_3.asm,ind_A.asm,ind_AI.asm
0%,745.77,697.54,701.20
1e-10%,745.61,697.53,701.19
1e-09%,744.62,697.47,701.13
1e-08%,741.85,697.25,700.91
1e-07%,738.02,696.91,700.57
1e-06%,733.66,696.51,700.16
1e-05%,728.84,696.06,699.71
0.0001%,723.56,695.56,699.22
0.001%,717.81,695.02,698.68
0.01%,711.60,694.43,698.08
0.05%,707.00,693.98,697.63
0.1%,704.95,693.77,697.42
0.2%,702.88,693.55,697.19
0.5%,700.09,693.21,696.83
1%,697.95,692.90,696.48
10%,690.69,690.59,693.57
100%,681.65,681.65,681.65
there are 647 nets with pz in range (0.9999999999978891, 1)
