universal rejuvenation
delay when all inputs zero prob = 1.0 is 983.46
delay when all inputs zero prob = 0.0 is 635.33

delay,rand_1.asm
0%,747.72
0.1%,707.28
100%,681.64
there are 0 nets with pz in range (0.9999999999978891, 1)
