universal rejuvenation
delay when all inputs zero prob = 1.0 is 983.46
delay when all inputs zero prob = 0.0 is 635.33

delay,nop_6.asm,nop_7.asm,nop_8.asm
0%,700.89,700.89,811.56
1e-10%,700.88,700.88,811.28
1e-09%,700.82,700.82,809.51
1e-08%,700.56,700.56,804.13
1e-07%,700.08,700.08,796.34
1e-06%,699.49,699.49,787.36
1e-05%,698.83,698.83,777.41
0.0001%,698.10,698.10,766.46
0.001%,697.30,697.30,754.50
0.01%,696.43,696.43,741.54
0.05%,695.78,695.78,731.90
0.1%,695.48,695.48,727.61
0.2%,695.17,695.17,723.24
0.5%,694.69,694.69,717.36
1%,694.25,694.25,712.83
10%,691.13,691.13,697.39
100%,681.65,681.65,681.65
there are 1112 nets with pz in range (0.9999999999978891, 1)
