00006810
3a532127
8327a9cc
0000a810
0c000004
00000000
030b3022
000e60c3
0000c812
0650000c
00000000
15400002
01ea001a
0007000d
2401ffff
15410004
3c018000
15e10002
00000000
0006000d
00007812
3c07359f
00000000
00000000
00000000
00000000
00000000
00000000
00000000
