just_mul.asm, 0%:(811.558630298, 40/441), 0.1%:(725.670697098, 2/170), 100%:(681.956220764, 1/163)
just_sub.asm, 0%:(811.558630298, 40/406), 0.1%:(726.125494018, 2/152), 100%:(682.404238818, 1/196)
opcode.asm, 0%:(747.545414739, 4/244), 0.1%:(706.513610846, 1/159), 100%:(682.167863322, 1/203)
